<?xml version="1.0" standalone="no"?>
<!DOCTYPE svg PUBLIC "-//W3C//DTD SVG 20010904//EN"
 "http://www.w3.org/TR/2001/REC-SVG-20010904/DTD/svg10.dtd">
<svg version="1.0" xmlns="http://www.w3.org/2000/svg"
 width="840.000000pt" height="800.000000pt" viewBox="0 0 840.000000 800.000000"
 preserveAspectRatio="xMidYMid meet">

<g transform="translate(0.000000,800.000000) scale(0.100000,-0.100000)"
stroke="#7733f6" fill="#7733f6">
<path d="M3925 7919 c-1505 -112 -2800 -1042 -3345 -2404 -322 -806 -343
-1717 -58 -2544 79 -228 226 -551 252 -551 6 0 -27 -21 -73 -46 -134 -71 -219
-132 -314 -223 -182 -175 -221 -354 -116 -537 379 -663 2659 -1102 4879 -939
1530 113 2680 468 2972 920 79 122 90 265 30 388 -60 121 -205 254 -402 367
-49 29 -90 54 -90 55 0 2 20 40 44 86 187 353 325 805 382 1254 25 196 25 644
0 840 -141 1108 -731 2058 -1666 2682 -725 483 -1619 717 -2495 652z m685
-339 c338 -40 734 -145 1027 -270 679 -292 1248 -785 1615 -1400 114 -192 157
-277 224 -448 25 -64 53 -137 63 -162 70 -174 139 -507 162 -785 14 -178 7
-506 -16 -675 -45 -334 -122 -604 -260 -910 -59 -131 -173 -340 -189 -346 -7
-3 -70 14 -142 36 -300 94 -721 185 -1109 240 -121 17 -230 33 -243 36 l-22 4
25 41 c92 145 184 380 221 564 27 134 25 426 -5 600 -120 713 -627 1690 -1446
2790 -219 293 -294 385 -315 385 -19 0 -45 -31 -256 -310 -824 -1088 -1362
-2106 -1501 -2842 -13 -72 -17 -146 -17 -323 0 -201 2 -243 22 -332 40 -182
121 -393 202 -524 21 -34 26 -51 18 -53 -7 -2 -87 -14 -178 -26 -409 -55 -889
-157 -1210 -259 -84 -27 -96 -28 -111 -15 -22 19 -175 330 -232 469 -151 369
-229 775 -230 1190 -1 394 78 816 216 1165 178 448 440 839 793 1180 322 311
664 538 1077 714 195 83 459 164 724 222 69 15 346 51 438 58 109 7 558 -3
655 -14z m-1324 -2527 c-17 -55 -47 -298 -53 -424 -16 -382 76 -698 307 -1053
100 -154 113 -182 113 -246 0 -63 -17 -101 -65 -146 -71 -68 -147 -86 -248
-60 -141 36 -233 120 -315 289 -86 179 -100 244 -99 477 0 175 3 208 28 320
15 69 51 197 81 285 70 214 225 575 247 575 5 0 7 -8 4 -17z m-491 -2308 l46
-55 -26 -10 c-14 -5 -32 -10 -39 -10 -6 0 -75 -15 -152 -34 -525 -129 -853
-323 -880 -519 -9 -66 2 -108 46 -175 282 -421 1769 -678 3165 -547 789 75
1407 264 1622 498 108 117 117 226 28 346 -117 161 -475 323 -925 421 -52 11
-101 23 -108 25 -9 3 1 22 30 59 31 40 50 55 68 55 40 1 317 -55 494 -101 603
-153 1005 -375 1120 -617 27 -57 31 -77 31 -147 0 -72 -4 -87 -37 -155 -65
-131 -196 -243 -417 -357 -327 -169 -757 -291 -1326 -377 -963 -146 -2159
-120 -3040 66 -737 155 -1234 397 -1366 665 -31 63 -34 76 -34 159 0 82 3 97
33 158 135 274 664 525 1427 677 194 39 184 40 240 -25z m212 -216 c498 -421
1172 -550 1793 -343 226 75 414 187 633 377 l56 49 113 -37 c156 -52 320 -133
399 -199 78 -64 129 -152 129 -220 0 -109 -112 -231 -295 -323 -479 -240
-1432 -344 -2285 -248 -506 57 -948 193 -1140 350 -152 125 -171 265 -54 395
77 85 243 176 444 244 58 20 106 36 108 36 2 0 46 -37 99 -81z"/>
</g>
</svg>
